[
  {
    "name": "TU Chemnitz",
    "description": "Our faculty in Chemnitz",
    "link": "https://www.tu-chemnitz.de/phil/politik/pf/professur/professur.php.en/",
    "icon": "/images/logo_tu.png",
    "tag": ""
  },
  {
    "name": "Hugo",
    "description": "The framework used to build this website",
    "link": "https://gohugo.io/",
    "icon": "https://d33wubrfki0l68.cloudfront.net/d7c79b5c53384a57cfcf5bfb1a3f6f009a058b0b/16f81/images/gopher-hero.svg",
    "tag": ""
  },
  {
    "name": "Digital Garden",
    "description": "The hugo theme this website is based on",
    "link": "https://github.com/apvarun/digital-garden-hugo-theme/",
    "icon": "/images/dg_logo.tiff",
    "tag": ""
  },
  {
    "name": "GitLab",
    "description": "Code hosting for this website",
    "link": "https://gitlab.com/felixgruenewald/encyclopediaofpolarization",
    "icon": "https://gitlab.com/assets/logo-911de323fa0def29aaf817fca33916653fc92f3ff31647ac41d2c39bbe243edb.svg",
    "tag": ""
  }
]
